{"start":275391,"end":275393,"count":275393,"type":"harmonic","pageSize":27539,"page":10,"pages":11,"columns":[{"label":"","property":"harmonic","sortable":false}],"items":[{"harmonic":"275390. Sydowia"},{"harmonic":"275391. Scellus crinipes"},{"harmonic":"275392. Trigonopterus micans"}]}